Theta: 90.0, Phi: 0.0
Theta: 90.0, Phi: 0.0
Theta: 90.0, Phi: 0.0
Theta: 90.0, Phi: 0.0
Theta: 90.0, Phi: 0.0
Theta: 90.0, Phi: 0.0
Theta: 90.0, Phi: 0.0
Theta: 90.0, Phi: 0.0
Theta: 90.0, Phi: 0.0
Theta: 90.0, Phi: 0.0
Theta: 90.0, Phi: 0.0
Theta: 90.0, Phi: 0.0
Theta: 90.0, Phi: 0.0
Theta: 90.0, Phi: 0.0
Theta: 90.0, Phi: 0.0
Theta: 90.0, Phi: 0.0
Theta: 90.0, Phi: 0.0
Theta: 90.0, Phi: 0.0
Theta: 90.0, Phi: 0.0
Theta: 90.0, Phi: 0.0
Theta: 90.0, Phi: 0.0
Theta: 90.0, Phi: 0.0
Theta: 90.0, Phi: 0.0
Theta: 90.0, Phi: 0.0
Theta: 90.0, Phi: 0.0
Theta: 90.0, Phi: 0.0
Theta: 90.0, Phi: 0.0
Theta: 90.0, Phi: 0.0
Theta: 90.0, Phi: 0.0
Theta: 90.0, Phi: 0.0
Theta: 90.0, Phi: 0.0
Theta: 90.0, Phi: 0.0
Theta: 90.0, Phi: 0.0
Theta: 90.0, Phi: 0.0
Theta: 90.0, Phi: 0.0
Theta: 90.0, Phi: 0.0
Theta: 90.0, Phi: 0.0
Theta: 90.0, Phi: 0.0
Theta: 90.0, Phi: 0.0
Theta: 90.0, Phi: 0.0
Theta: 90.0, Phi: 0.0
Theta: 90.0, Phi: 0.0
Theta: 90.0, Phi: 0.0
Theta: 90.0, Phi: 0.0
Theta: 90.0, Phi: 0.0
Theta: 90.0, Phi: 0.0
Theta: 90.0, Phi: 0.0
Theta: 90.0, Phi: 0.0
Theta: 90.0, Phi: 0.0
Theta: 90.0, Phi: 0.0
Theta: 90.0, Phi: 0.0
Theta: 90.0, Phi: 0.0
Theta: 90.0, Phi: 0.0
Theta: 90.0, Phi: 0.0
Theta: 90.0, Phi: 0.0
Theta: 90.0, Phi: 0.0
Theta: 90.0, Phi: 0.0
Theta: 90.0, Phi: 0.0
Theta: 90.0, Phi: 0.0
Theta: 90.0, Phi: 0.0
Theta: 90.0, Phi: 0.0
Theta: 90.0, Phi: 0.0
Theta: 90.0, Phi: 0.0
Theta: 90.0, Phi: 0.0
Theta: 90.0, Phi: 0.0
Theta: 90.0, Phi: 0.0
Theta: 90.0, Phi: 0.0
Theta: 90.0, Phi: 0.0
Theta: 90.0, Phi: 0.0
Theta: 90.0, Phi: 0.0
Theta: 90.0, Phi: 0.0
Theta: 90.0, Phi: 0.0
Theta: 90.0, Phi: 0.0
Theta: 90.0, Phi: 0.0
Theta: 90.0, Phi: 0.0
Theta: 90.0, Phi: 0.0
Theta: 90.0, Phi: 0.0
Theta: 90.0, Phi: 0.0
Theta: 90.0, Phi: 0.0
Theta: 90.0, Phi: 0.0
Theta: 90.0, Phi: 0.0
Theta: 90.0, Phi: 0.0
Theta: 90.0, Phi: 0.0
Theta: 90.0, Phi: 0.0
Theta: 90.0, Phi: 0.0
Theta: 90.0, Phi: 0.0
Theta: 90.0, Phi: 0.0
Theta: 90.0, Phi: 0.0
Average computation time was 86.88140186396512 ms