Theta: 90.0, Phi: 348.75
Theta: 90.0, Phi: 348.75
Theta: 90.0, Phi: 348.75
Theta: 90.0, Phi: 348.75
Theta: 90.0, Phi: 348.75
Theta: 90.0, Phi: 348.75
Theta: 90.0, Phi: 348.75
Theta: 90.0, Phi: 348.75
Theta: 90.0, Phi: 348.75
Theta: 90.0, Phi: 348.75
Theta: 90.0, Phi: 348.75
Theta: 90.0, Phi: 348.75
Theta: 90.0, Phi: 348.75
Theta: 90.0, Phi: 348.75
Theta: 90.0, Phi: 348.75
Theta: 90.0, Phi: 348.75
Theta: 90.0, Phi: 348.75
Theta: 90.0, Phi: 348.75
Theta: 90.0, Phi: 348.75
Theta: 90.0, Phi: 348.75
Theta: 90.0, Phi: 348.75
Theta: 90.0, Phi: 348.75
Theta: 90.0, Phi: 348.75
Theta: 90.0, Phi: 348.75
Theta: 90.0, Phi: 348.75
Theta: 90.0, Phi: 11.25
Theta: 90.0, Phi: 348.75
Theta: 90.0, Phi: 11.25
Theta: 90.0, Phi: 348.75
Theta: 90.0, Phi: 11.25
Theta: 90.0, Phi: 22.5
Theta: 90.0, Phi: 11.25
Theta: 90.0, Phi: 11.25
Theta: 90.0, Phi: 348.75
Theta: 90.0, Phi: 348.75
Theta: 90.0, Phi: 11.25
Theta: 90.0, Phi: 11.25
Theta: 90.0, Phi: 11.25
Theta: 90.0, Phi: 22.5
Theta: 90.0, Phi: 11.25
Theta: 90.0, Phi: 33.75
Theta: 90.0, Phi: 11.25
Theta: 90.0, Phi: 0.0
Theta: 90.0, Phi: 11.25
Theta: 90.0, Phi: 11.25
Theta: 90.0, Phi: 11.25
Theta: 90.0, Phi: 11.25
Average computation time was 126.91088940234894 ms