Theta: 90.0, Phi: 90.0
Theta: 90.0, Phi: 90.0
Theta: 90.0, Phi: 90.0
Theta: 90.0, Phi: 90.0
Theta: 90.0, Phi: 90.0
Theta: 90.0, Phi: 90.0
Theta: 90.0, Phi: 90.0
Theta: 90.0, Phi: 90.0
Theta: 90.0, Phi: 90.0
Theta: 90.0, Phi: 90.0
Theta: 90.0, Phi: 90.0
Theta: 90.0, Phi: 90.0
Theta: 90.0, Phi: 90.0
Theta: 90.0, Phi: 90.0
Theta: 90.0, Phi: 90.0
Theta: 90.0, Phi: 90.0
Theta: 90.0, Phi: 90.0
Theta: 90.0, Phi: 90.0
Theta: 90.0, Phi: 90.0
Theta: 90.0, Phi: 90.0
Theta: 90.0, Phi: 90.0
Theta: 90.0, Phi: 90.0
Theta: 90.0, Phi: 90.0
Theta: 90.0, Phi: 90.0
Theta: 90.0, Phi: 90.0
Theta: 90.0, Phi: 90.0
Theta: 90.0, Phi: 90.0
Theta: 90.0, Phi: 90.0
Theta: 90.0, Phi: 90.0
Theta: 90.0, Phi: 90.0
Theta: 90.0, Phi: 90.0
Theta: 90.0, Phi: 90.0
Theta: 90.0, Phi: 90.0
Theta: 90.0, Phi: 90.0
Theta: 90.0, Phi: 90.0
Theta: 90.0, Phi: 90.0
Theta: 90.0, Phi: 90.0
Theta: 90.0, Phi: 90.0
Theta: 90.0, Phi: 90.0
Theta: 90.0, Phi: 90.0
Theta: 90.0, Phi: 90.0
Theta: 90.0, Phi: 90.0
Theta: 90.0, Phi: 90.0
Theta: 90.0, Phi: 90.0
Theta: 90.0, Phi: 90.0
Theta: 90.0, Phi: 90.0
Theta: 90.0, Phi: 90.0
Average computation time was 128.65987229854503 ms