Theta: 90.0, Phi: 11.25
Theta: 90.0, Phi: 0.0
Theta: 90.0, Phi: 22.5
Theta: 90.0, Phi: 22.5
Theta: 90.0, Phi: 11.25
Theta: 90.0, Phi: 11.25
Theta: 90.0, Phi: 11.25
Theta: 90.0, Phi: 11.25
Theta: 90.0, Phi: 11.25
Theta: 90.0, Phi: 11.25
Theta: 90.0, Phi: 11.25
Theta: 90.0, Phi: 22.5
Theta: 90.0, Phi: 22.5
Theta: 90.0, Phi: 22.5
Theta: 90.0, Phi: 22.5
Theta: 90.0, Phi: 11.25
Theta: 90.0, Phi: 0.0
Theta: 90.0, Phi: 22.5
Theta: 90.0, Phi: 22.5
Theta: 90.0, Phi: 11.25
Theta: 90.0, Phi: 11.25
Theta: 90.0, Phi: 22.5
Theta: 90.0, Phi: 11.25
Theta: 90.0, Phi: 11.25
Theta: 90.0, Phi: 22.5
Theta: 90.0, Phi: 22.5
Theta: 90.0, Phi: 22.5
Theta: 90.0, Phi: 11.25
Theta: 90.0, Phi: 11.25
Theta: 90.0, Phi: 22.5
Theta: 90.0, Phi: 11.25
Theta: 90.0, Phi: 11.25
Theta: 90.0, Phi: 11.25
Theta: 90.0, Phi: 22.5
Theta: 90.0, Phi: 22.5
Theta: 90.0, Phi: 11.25
Theta: 90.0, Phi: 11.25
Theta: 90.0, Phi: 11.25
Theta: 90.0, Phi: 22.5
Theta: 90.0, Phi: 11.25
Theta: 90.0, Phi: 22.5
Theta: 90.0, Phi: 11.25
Theta: 90.0, Phi: 22.5
Theta: 90.0, Phi: 11.25
Theta: 90.0, Phi: 11.25
Theta: 90.0, Phi: 0.0
Theta: 90.0, Phi: 22.5
Average computation time was 135.47264261448638 ms